<svg xmlns="http://www.w3.org/2000/svg" viewBox="0 0 367.6221 333.653">
    <path d="M13.602 27.2h38.984l55.535 200.828A13.597 13.597 0 0 0 121.267 238h170.68a13.63 13.63 0 0 0 12.468-8.16l62.106-142.8a13.765 13.765 0 0 0-1.133-12.92A13.504 13.504 0 0 0 354.05 68H165.466a13.6 13.6 0 0 0 0 27.2H333.2l-50.32 115.6H131.464L75.935 9.974A13.6 13.6 0 0 0 62.788 0H13.6a13.6 13.6 0 1 0 0 27.2zm0 0"/>
    <path d="M108.348 333.653A30.826 30.826 0 1 0 77.52 302.83a30.854 30.854 0 0 0 30.828 30.823zm192.664 0h2.27a31.88 31.88 0 1 0-2.27 0zm0 0"/>
</svg>
