<?xml version="1.0" encoding="UTF-8"?>
<svg width="198px" height="52px" viewBox="0 0 198 52" version="1.1" xmlns="http://www.w3.org/2000/svg" xmlns:xlink="http://www.w3.org/1999/xlink">
    <!-- Generator: Sketch 44.1 (41455) - http://www.bohemiancoding.com/sketch -->
    <title>icon-webmoney</title>
    <desc>Created with Sketch.</desc>
    <defs></defs>
    <g id="Page-1" stroke="none" stroke-width="1" fill="none" fill-rule="evenodd">
        <g id="icon-webmoney" fill="#0761AF">
            <g id="Group">
                <path d="M25.9,0.1 C30,0.1 33.8,1 37.2,2.7 C37.7,3 38.3,3.2 38.8,3.5 L36.4,5.6 L32.8,2 L26.8,7.4 L23.2,3.5 L12,13.7 L19.2,21.6 L16.4,24.1 L23.5,32.1 L20.7,34.6 L30.8,45.9 L36.8,40.4 L42,46.3 C41,47.1 39.8,47.9 38.6,48.6 C34.8,50.7 30.5,52 25.9,52 C11.6,51.9 0,40.2 0,26 C0,11.8 11.6,0.1 25.9,0.1 L25.9,0.1 Z" id="Shape"></path>
                <polygon id="Shape" points="21.1 24.4 27.3 18.8 32.8 25 26.7 30.5"></polygon>
                <polygon id="Shape" points="25.5 35 31.7 29.5 37.2 35.6 31 41.1"></polygon>
                <polygon id="Shape" points="16.7 13.9 22.9 8.3 28.4 14.5 22.3 20"></polygon>
                <polygon id="Shape" points="28 10.9 32.6 6.7 36.8 11.3 32.2 15.5"></polygon>
                <polygon id="Shape" points="36.2 29.9 40.8 25.8 45 30.4 40.4 34.5"></polygon>
                <polygon id="Shape" points="40.3 39.2 44.9 35.1 49 39.7 44.4 43.8"></polygon>
                <polygon id="Shape" points="42.1 17.9 45.2 15.1 48 18.2 44.9 20.9"></polygon>
                <polygon id="Shape" points="38.2 8.7 41.3 6 44 9 41 11.8"></polygon>
                <polygon id="Shape" points="46.1 27 49.1 24.2 51.9 27.3 48.8 30.1"></polygon>
                <polygon id="Shape" points="32.3 20.2 36.9 16 41 20.6 36.4 24.8"></polygon>
            </g>
            <path d="M122.9,16.1 L122.8,16.2 L122.7,16.1 C121.6,15.1 120.5,14.8 119,14.8 C115.7,14.8 113.5,17.1 113.5,20.7 C113.5,20.7 113.5,37.2 113.5,37.6 C113.8,37.6 116.5,37.6 116.8,37.6 C116.8,37.2 116.8,20.7 116.8,20.7 C116.8,18.3 118.4,18.1 119,18.1 C119.4,18.1 120,18.2 120.4,18.6 C120.9,19.1 121.1,19.8 121.1,20.7 C121.1,20.7 121.1,37.2 121.1,37.6 C121.4,37.6 124.1,37.6 124.4,37.6 C124.4,37.2 124.4,20.7 124.4,20.7 C124.4,18.3 126,18.1 126.6,18.1 C127,18.1 127.6,18.2 128,18.6 C128.5,19.1 128.7,19.8 128.7,20.7 C128.7,20.7 128.7,37.2 128.7,37.6 C129,37.6 131.7,37.6 132,37.6 C132,37.2 132,20.7 132,20.7 C132,18.8 131.4,17.3 130.4,16.2 C129.4,15.3 128.1,14.8 126.5,14.8 C125.1,14.7 123.9,15.2 122.9,16.1 Z" id="Shape"></path>
            <path d="M147.2,22.5 C146.1,21.3 144.3,20.3 141.8,20.3 C139.4,20.3 137.6,21.3 136.5,22.5 C134.8,24.4 134.4,27 134.4,29.1 C134.4,31.1 134.7,33.8 136.5,35.7 C137.6,36.9 139.4,37.9 141.8,37.9 C144.3,37.9 146.1,36.9 147.2,35.7 C148.9,33.8 149.3,31.2 149.3,29.1 C149.2,27.1 148.9,24.4 147.2,22.5 L147.2,22.5 Z M145.9,29.9 C145.9,31.5 145.9,33.3 144.7,34.6 C144.2,35.1 143.3,35.7 141.8,35.7 C140.4,35.7 139.4,35.1 139,34.6 C137.8,33.3 137.8,31.5 137.8,29.9 L137.8,28.4 C137.8,26.8 137.8,25 139,23.8 C139.5,23.3 140.4,22.6 141.8,22.6 C143.3,22.6 144.3,23.2 144.7,23.8 C145.9,25.1 145.9,26.8 145.9,28.4 L145.9,29.9 Z" id="Shape"></path>
            <path d="M152,20.6 L154.8,20.6 L154.8,22.1 C155.6,21.5 156.3,21.1 157.2,20.8 C158.2,20.4 158.9,20.3 159.9,20.3 C161.3,20.3 162.8,20.6 164,21.9 C165.2,23.2 165.4,24.8 165.4,26.2 L165.4,37.4 L162.3,37.4 L162.3,26 C162.3,23.3 160.6,22.5 159.1,22.5 C157.7,22.5 156.2,23.1 155,24.2 L155,37.4 L152,37.4 L152,23.1 L152,20.6 L152,20.6 Z" id="Shape"></path>
            <path d="M180.5,34.2 C179.9,34.5 179.3,34.7 178.5,35 C177.6,35.3 176.9,35.4 175.9,35.4 C174.3,35.4 172.9,34.9 172.1,34 C171.5,33.4 170.9,32.3 170.9,30.2 L170.9,29.8 L181.3,29.8 L181.3,29 C181.3,26.3 181.2,24.1 179.5,22.3 C178.4,21.1 176.7,20.3 174.6,20.3 C172.2,20.3 170.5,21.3 169.4,22.5 C167.7,24.5 167.5,27.1 167.5,28.8 C167.5,30.7 167.8,33.5 169.5,35.4 C170.6,36.7 172.6,37.8 175.4,37.8 C176.7,37.8 178,37.7 179.4,37.1 C180.1,36.8 180.9,36.4 181.5,36.1 L180.5,34.2 L180.5,34.2 Z M170.9,27.3 C170.9,25.4 171.5,24.3 172,23.7 C172.5,23.2 173.3,22.6 174.6,22.6 C175.5,22.6 176.3,22.8 177,23.4 C178.1,24.5 178.1,25.8 178.1,26.9 L178.1,27.6 L171,27.6 L171,27.3 L170.9,27.3 Z" id="Shape"></path>
            <path d="M198,20.7 L191.4,40.6 C191.2,41.5 190.5,42.9 189.8,43.7 C188.9,44.7 187.8,45.1 186.5,45.1 C185.6,45.1 184.7,44.9 183.8,44.4 C183.3,44.1 182.7,43.7 182.4,43.3 L183.8,41.5 C184,41.7 184.4,42 184.7,42.2 C185.2,42.5 185.8,42.6 186.3,42.6 C187.2,42.6 187.8,42.1 188.1,41.7 C188.4,41.3 188.8,40.3 189,39.6 L189.4,38.3 L182.3,20.7 L185.6,20.7 L189.8,31.3 C190.2,32.3 190.7,33.9 190.8,34.3 L190.9,34.3 C191.4,32.3 191.7,31.6 192.1,30.3 L195.1,20.7 L198,20.7 L198,20.7 Z" id="Shape"></path>
            <path d="M68.3,36.6 L68.4,36.5 L68.5,36.6 C69.6,37.5 70.7,37.9 72.2,37.9 C75.5,37.9 77.7,35.5 77.7,32 C77.7,32 77.7,15.4 77.7,15.1 C77.4,15.1 74.7,15.1 74.3,15.1 C74.3,15.4 74.3,32 74.3,32 C74.3,34.4 72.7,34.6 72.2,34.6 C71.8,34.6 71.2,34.6 70.8,34.1 C70.3,33.7 70.1,32.9 70.1,32 C70.1,32 70.1,15.4 70.1,15.1 C69.8,15.1 67.1,15.1 66.7,15.1 C66.7,15.4 66.7,32 66.7,32 C66.7,34.4 65.1,34.6 64.5,34.6 C64.1,34.6 63.5,34.6 63.1,34.1 C62.6,33.7 62.4,32.9 62.4,32 C62.4,32 62.4,15.4 62.4,15.1 C62.1,15.1 59.4,15.1 59,15.1 C59,15.4 59,32 59,32 C59,33.8 59.6,35.4 60.6,36.4 C61.6,37.4 63,37.9 64.5,37.9 C66.1,37.9 67.3,37.4 68.3,36.6 Z" id="Shape"></path>
            <path d="M93.2,34.2 C92.7,34.4 92,34.7 91.3,35 C90.4,35.3 89.7,35.4 88.7,35.4 C87.1,35.4 85.7,34.9 84.9,34 C84.4,33.4 83.7,32.3 83.7,30.2 L83.7,29.8 L94,29.8 L94,29 C94,26.3 93.9,24.1 92.3,22.3 C91.2,21.1 89.5,20.3 87.3,20.3 C85,20.3 83.3,21.3 82.2,22.5 C80.4,24.5 80.3,27.1 80.3,28.8 C80.3,30.7 80.5,33.5 82.3,35.4 C83.5,36.7 85.4,37.8 88.2,37.8 C89.5,37.8 90.8,37.6 92.2,37.1 C92.9,36.9 93.7,36.4 94.2,36.1 L93.2,34.2 L93.2,34.2 Z M83.7,27.3 C83.7,25.4 84.3,24.3 84.8,23.7 C85.2,23.2 86,22.6 87.3,22.6 C88.2,22.6 89,22.8 89.7,23.5 C90.8,24.5 90.8,25.8 90.8,27 L90.8,27.7 L83.7,27.7 L83.7,27.3 Z" id="Shape"></path>
            <path d="M108.4,22.1 C107.2,21 105.5,20.4 103.8,20.4 C103,20.4 102.2,20.5 101.6,20.6 C101.1,20.7 100.5,21 100,21.2 L100,14.6 L97,14.6 L97,36 C98.8,37.1 100.9,37.8 103.3,37.8 C105.1,37.8 107.5,37.4 109.2,35.1 C110.6,33.2 110.9,30.9 110.9,28.9 C110.8,27.2 110.7,24.1 108.4,22.1 L108.4,22.1 Z M103.2,22.6 C104.4,22.6 105.7,23 106.4,23.8 C107.5,25 107.5,26.7 107.5,28.2 L107.5,29.6 C107.5,32.4 107,33.6 106.6,34.2 C106.1,34.8 105.1,35.6 103.4,35.6 C102.8,35.6 102,35.4 101.4,35.3 C101,35.2 100.4,34.9 100,34.6 L100,23.6 L103.2,22.6 Z" id="Shape"></path>
        </g>
    </g>
</svg>