<svg xmlns="http://www.w3.org/2000/svg" width="368" height="334" viewBox="0 0 368 334">
    <path d="M108.3 333.7c17.038.028 30.872-13.762 30.9-30.8.028-17.038-13.762-30.872-30.8-30.9-17.038-.028-30.872 13.762-30.9 30.8a30.813 30.813 0 0 0 30.8 30.9z"/>
    <path d="M301 333.7h2.3a30.772 30.772 0 0 0 21.1-10.7 30.832 30.832 0 0 0-25.4-51c-17 1.1-29.7 16.1-28.6 32.9 1.086 16.131 14.433 28.693 30.6 28.8z"/>
    <path fill="transparent" d="M64.091 68L108.1 228a13.593 13.593 0 0 0 13.1 10h170.7a13.77 13.77 0 0 0 12.5-8.2L366.5 87a13.724 13.724 0 0 0-1.1-12.9 13.365 13.365 0 0 0-11.3-6.1H64.091z" data-name="filled"/>
    <path d="M13.6 27.2h39L108.1 228a13.593 13.593 0 0 0 13.1 10h170.7a13.77 13.77 0 0 0 12.5-8.2L366.5 87a13.724 13.724 0 0 0-1.1-12.9 13.365 13.365 0 0 0-11.3-6.1H165.5c-7.511 0-13.6 6.089-13.6 13.6 0 7.511 6.089 13.6 13.6 13.6h167.7l-50.3 115.6H131.5L75.9 10A13.593 13.593 0 0 0 62.8 0H13.6C6.089 0 0 6.089 0 13.6c0 7.511 6.089 13.6 13.6 13.6z"/>
</svg>
